{
  "project_info": {
    "project_number": "25651695319",
    "firebase_url": "https://espresso-test-f1f34.firebaseio.com",
    "project_id": "espresso-test-f1f34",
    "storage_bucket": "espresso-test-f1f34.appspot.com"
  },
  "client": [
    {
      "client_info": {
        "mobilesdk_app_id": "1:25651695319:android:0a09890fa5c4c10a426a92",
        "android_client_info": {
          "package_name": "com.example.espressotest"
        }
      },
      "oauth_client": [
        {
          "client_id": "25651695319-tqmdctvrkj7hgumo2gmc7fv3uu3gses9.apps.googleusercontent.com",
          "client_type": 3
        }
      ],
      "api_key": [
        {
          "current_key": "AIzaSyASwdHfJvq7zqQWMl0O68GauHgXAQ0UX4Q"
        }
      ],
      "services": {
        "appinvite_service": {
          "other_platform_oauth_client": [
            {
              "client_id": "25651695319-tqmdctvrkj7hgumo2gmc7fv3uu3gses9.apps.googleusercontent.com",
              "client_type": 3
            }
          ]
        }
      }
    }
  ],
  "configuration_version": "1"
}